Some notes on probability judgement – Notes from a data witch
…
If you had to guess, what proportion of American adults have a passport?

If you had to guess, what proportion of American adults own a car?

Et cetera, et cetera. You get the idea.

Now, one of the fun things about having spent 20 years of my life as a mathematical psychologist2 is that just from looking at the questions I can tell you something about what the responses will look like. It is entirely predictable that people will massively overestimate the answer for the trans question, massively underestimate the answer for the car question, and will probably do okay(-ish) on the passport question.

Why do I know this with utter certainty? Because it’s a trick. Stage magic, if you will, except using human psychology to do it. I have seen this parlour trick before. I know it well. In my academic days it is a trick I pulled off countless times in undergrad lectures, along with a variety of others. As the post unfolds I’ll show you how the trick works and why it works, but let’s start by taking a look at the data, which YouGov have kindly provided in their article and I have translated into a csv file.

survey <- read_csv("yougov_survey.csv", show_col_types = FALSE)
survey

# A tibble: 45 × 4
   category                                 true est_mean est_median
   <chr>                                   <dbl>    <dbl>      <dbl>
 1 Have a household income over $1 million  0        0.2        0.1 
 2 Are transgender                          0.01     0.21       0.12
 3 Have a household income over $500,000    0.01     0.26       0.19
 4 Are Muslim                               0.01     0.27       0.2 
 5 Are Native American                      0.01     0.27       0.2 
 6 Are Jewish                               0.02     0.3        0.25
 7 Live in New York City                    0.03     0.3        0.22
 8 Are gay or lesbian                       0.03     0.3        0.24
 9 Are atheists                             0.03     0.33       0.28
10 Are bisexual                             0.04     0.29       0.24
# ℹ 35 more rows
…
