Bayesian estimation for Emax regression – Notes from a data witch
…
  make_data(dose = 100, n = 100, condition = "100 mg"),
  make_data(dose = 50, n = 100, condition = "50 mg"),
  make_data(dose = 0, n = 20, condition = "placebo"),
  make_data(dose = 25, n = 3, condition = "phase 1"),
  make_data(dose = 50, n = 3, condition = "phase 1"),
  make_data(dose = 100, n = 3, condition = "phase 1"),
  make_data(dose = 200, n = 3, condition = "phase 1"),
  make_data(dose = 300, n = 3, condition = "phase 1"),
  make_data(dose = 400, n = 3, condition = "phase 1"),
  make_data(dose = 500, n = 3, condition = "phase 1"),
  make_data(dose = 600, n = 3, condition = "phase 1")
) 
full_design

# A tibble: 244 × 3
    dose exposure condition
   <dbl>    <dbl> <chr>    
 1   100    4271. 100 mg   
 2   100    3973. 100 mg   
 3   100    5823. 100 mg   
 4   100    2563. 100 mg   
 5   100    5253. 100 mg   
 6   100    5352. 100 mg   
 7   100    8409. 100 mg   
 8   100    4643. 100 mg   
 9   100    5782. 100 mg   
10   100    3434. 100 mg   
# ℹ 234 more rows
…
And just like that we can generate fictitious data sets to which an Emax model can be applied, containing exposure and response columns that are broadly analogous to those we encounter in real data (albeit without any covariate information, etc), along with an emax_val column that removes measurement error from the response, and of course wouldn’t be available in real life:

dat1 <- generate_emax_data(
  exposure = small_design$exposure, 
  par = par1
)
dat1

# A tibble: 200 × 3
   exposure emax_val response
      <dbl>    <dbl>    <dbl>
 1    4271.     15.2     14.8
 2    3973.     15.0     15.2
 3    5823.     15.9     15.0
 4    2563.     13.9     13.6
 5    5253.     15.7     15.5
 6    5352.     15.7     16.3
 7    8409.     16.8     16.5
 8    4643.     15.4     15.6
 9    5782.     15.9     15.7
10    3434.     14.6     14.1
# ℹ 190 more rows
…
As much as I like the plot that gets returned by the plot() method, it’s not quite what I want to look at in this post. I’m more curious about the posterior distribution itself, so instead I’ll use the extract_param() function to recover the parameter sets sampled by stan:

smp0 <- extract_param(mod0)
smp0

# A tibble: 4,000 × 6
   mcmcid  emax    e0  ec50     gamma     sigma
    <int> <dbl> <dbl> <dbl> <dbl[1d]> <dbl[1d]>
 1      1 10.2  10.0  4141.         1     0.552
 2      2 10.1   9.99 4103.         1     0.550
 3      3  9.63  9.96 3652.         1     0.550
 4      4  9.97 10.0  4026.         1     0.555
 5      5 10.2   9.99 4248.         1     0.593
 6      6  9.92 10.2  4325.         1     0.580
 7      7 10.0   9.90 3793.         1     0.595
 8      8  9.73  9.92 3639.         1     0.560
 9      9  9.65  9.97 3759.         1     0.545
10     10 10.1  10.2  4528.         1     0.544
# ℹ 3,990 more rows
…
