Some notes on survey weights – Notes from a data witch
…
nhanes

# A tibble: 45,353 × 9
      id sex_num sex_fct weight_kg height_cm age_mn age_yr cohort  survey_wt
   <dbl>   <dbl> <fct>       <dbl>     <dbl>  <dbl>  <dbl> <chr>       <dbl>
 1 51624       0 male         87.4     165.     409  34.1  2009-2…    16306.
 2 51625       0 male         17       105.      49   4.08 2009-2…    11399.
 3 51626       0 male         72.3     181.     202  16.8  2009-2…     2902.
 4 51627       0 male         39.8     148.     131  10.9  2009-2…     2408.
 5 51628       1 female      117.      166      722  60.2  2009-2…     4200.
 6 51629       0 male         97.6     173      313  26.1  2009-2…     4527.
 7 51630       1 female       86.7     168.     596  49.7  2009-2…    14822.
 8 51631       1 female        9.4      74.6     12   1    2009-2…     4955.
 9 51632       0 male         26       140.     124  10.3  2009-2…     1635.
10 51634       0 male         44.7     144.     121  10.1  2009-2…     2047.
# ℹ 45,343 more rows
…
nhanes_2

# A tibble: 18,422 × 5
      id sex_fct age_yr us_born survey_wt
   <dbl> <fct>    <dbl> <lgl>       <dbl>
 1 83732 male        62 TRUE       67336.
 2 83733 male        53 FALSE      12164.
 3 83734 male        78 TRUE        6200.
 4 83735 female      56 TRUE       51359.
 5 83736 female      42 TRUE        8814.
 6 83737 female      72 FALSE       5626.
 7 83738 female      11 TRUE        4982.
 8 83739 male         4 TRUE       22375.
 9 83740 male         1 TRUE        4946.
10 83741 male        22 TRUE       18522.
# ℹ 18,412 more rows
…
Noting that I’ve done something malicious in the construction of the data set, let’s move forward and look at what happens when we estimate the proportion of US residents who are also US born, stratified by age and sex. There are two versions of this calculation shown, one that uses the survey weights, and another that ignores them:

birth_country <- nhanes_2 |> 
  dplyr::filter(!is.na(us_born)) |> 
  dplyr::summarise(
    us_born_unweighted = mean(us_born),
    us_born_weighted = sum(us_born * survey_wt) / sum(survey_wt),
    .by = c(age_yr, sex_fct)
  ) |> 
  dplyr::arrange(age_yr)

birth_country

# A tibble: 160 × 4
   age_yr sex_fct us_born_unweighted us_born_weighted
    <dbl> <fct>                <dbl>            <dbl>
 1      0 female               0.992            0.994
 2      0 male                 1                1    
 3      1 male                 0.982            0.979
 4      1 female               0.984            0.987
 5      2 female               0.978            0.982
 6      2 male                 0.977            0.984
 7      3 male                 0.951            0.956
 8      3 female               0.977            0.984
 9      4 male                 0.969            0.982
10      4 female               0.976            0.982
# ℹ 150 more rows
…
