Art from code VII: Pixel filters – Notes from a data witch
…
In this session I’ll provide an introduction to ggfx. The API for ggfx takes a little while to wrap your head around, but once you’ve got a handle on it, it turns out to be a very powerful tool for generative art in R.

Prelude

When we dive into ggfx, it will be handy to have some data that we can use to make interesting art. For that purpose I’ll rely on the flametree package which I’ve used in the past to make pretty pictures of trees. The flametree_grow() function generates the raw data:

tree <- flametree_grow(
  seed = 1, 
  time = 9, 
  angle = c(-15, 15, 30)
)
tree

# A tibble: 3,069 × 12
   coord_x coord_y id_tree id_time id_path id_leaf id_pathtree id_step seg_deg seg_len seg_col seg_wid
     <dbl>   <dbl>   <int>   <int>   <int> <lgl>   <chr>         <int>   <dbl>   <dbl>   <dbl>   <dbl>
 1  -0.429    0          1       1       1 FALSE   1_1               0      90    1          3    4.67
 2  -0.429    0.5        1       1       1 FALSE   1_1               1      90    1          3    4.67
 3  -0.429    1          1       1       1 FALSE   1_1               2      90    1          3    4.67
 4  -0.429    1          1       2       2 FALSE   1_2               0      75    0.9        4    3.59
 5  -0.429    1.45       1       2       2 FALSE   1_2               1      75    0.9        4    3.59
 6  -0.196    1.87       1       2       2 FALSE   1_2               2      75    0.9        4    3.59
 7  -0.429    1          1       2       3 FALSE   1_3               0      75    0.6        4    3.59
 8  -0.429    1.3        1       2       3 FALSE   1_3               1      75    0.6        4    3.59
 9  -0.274    1.58       1       2       3 FALSE   1_3               2      75    0.6        4    3.59
10  -0.196    1.87       1       3       4 FALSE   1_4               0     105    0.54       5    2.32
# ℹ 3,059 more rows
…
