For fs – Notes from a data witch
…
file_info(lorem_paths[1:4])

# A tibble: 4 × 18
  path                                     type         size permissions modification_time   user     group    device_id hard_links special_device_id   inode block_size blocks flags generation access_time         change_time         birth_time         
  <fs::path>                               <fct> <fs::bytes> <fs::perms> <dttm>              <chr>    <chr>        <dbl>      <dbl>             <dbl>   <dbl>      <dbl>  <dbl> <int>      <dbl> <dttm>              <dttm>              <dttm>             
1 nonsense/consectetur/001_001_consectetur file          307 rw-rw-r--   2024-10-06 14:10:44 danielle danielle     64513          1                 0 1586371       4096      8     0          0 2024-10-06 14:10:44 2024-10-06 14:10:44 2024-10-06 14:10:44
2 nonsense/ipsum/001_002_ipsum             file          322 rw-rw-r--   2024-10-06 14:10:44 danielle danielle     64513          1                 0 1586372       4096      8     0          0 2024-10-06 14:10:44 2024-10-06 14:10:44 2024-10-06 14:10:44
3 nonsense/elit/001_003_elit               file          397 rw-rw-r--   2024-10-06 14:10:44 danielle danielle     64513          1                 0 1586401       4096      8     0          0 2024-10-06 14:10:44 2024-10-06 14:10:44 2024-10-06 14:10:44
4 nonsense/lorem/001_004_lorem             file          474 rw-rw-r--   2024-10-06 14:10:44 danielle danielle     64513          1                 0 1586402       4096      8     0          0 2024-10-06 14:10:44 2024-10-06 14:10:44 2024-10-06 14:10:44

There is an analogous function dir_info() that can be applied to a directory, and the output is structured the same way:

dir_info("nonsense", recurse = TRUE)

# A tibble: 27 × 18
   path                                     type             size permissions modification_time   user     group    device_id hard_links special_device_id   inode block_size blocks flags generation access_time         change_time         birth_time         
   <fs::path>                               <fct>     <fs::bytes> <fs::perms> <dttm>              <chr>    <chr>        <dbl>      <dbl>             <dbl>   <dbl>      <dbl>  <dbl> <int>      <dbl> <dttm>              <dttm>              <dttm>             
 1 nonsense/adipiscing                      directory          4K rwxr-xr-x   2024-10-06 14:10:44 danielle danielle     64513          2                 0 1586368       4096      8     0          0 2024-10-06 14:10:44 2024-10-06 14:10:44 2024-10-06 14:10:44
 2 nonsense/adipiscing/001_008_adipiscing   file              415 rw-rw-r--   2024-10-06 14:10:44 danielle danielle     64513          1                 0 1586419       4096      8     0          0 2024-10-06 14:10:44 2024-10-06 14:10:44 2024-10-06 14:10:44
 3 nonsense/adipiscing/001_009_adipiscing   file              370 rw-rw-r--   2024-10-06 14:10:44 danielle danielle     64513          1                 0 1586420       4096      8     0          0 2024-10-06 14:10:44 2024-10-06 14:10:44 2024-10-06 14:10:44
 4 nonsense/adipiscing/001_012_adipiscing   file              254 rw-rw-r--   2024-10-06 14:10:44 danielle danielle     64513          1                 0 1586514       4096      8     0          0 2024-10-06 14:10:44 2024-10-06 14:10:44 2024-10-06 14:10:44
 5 nonsense/adipiscing/001_017_adipiscing   file              393 rw-rw-r--   2024-10-06 14:10:44 danielle danielle     64513          1                 0 1589481       4096      8     0          0 2024-10-06 14:10:44 2024-10-06 14:10:44 2024-10-06 14:10:44
 6 nonsense/amet                            directory          4K rwxr-xr-x   2024-10-06 14:10:44 danielle danielle     64513          2                 0 1586369       4096      8     0          0 2024-10-06 14:10:44 2024-10-06 14:10:44 2024-10-06 14:10:44
 7 nonsense/amet/001_013_amet               file              367 rw-rw-r--   2024-10-06 14:10:44 danielle danielle     64513          1                 0 1586515       4096      8     0          0 2024-10-06 14:10:44 2024-10-06 14:10:44 2024-10-06 14:10:44
 8 nonsense/amet/001_019_amet               file              313 rw-rw-r--   2024-10-06 14:10:44 danielle danielle     64513          1                 0 1589484       4096      8     0          0 2024-10-06 14:10:44 2024-10-06 14:10:44 2024-10-06 14:10:44
 9 nonsense/consectetur                     directory          4K rwxr-xr-x   2024-10-06 14:10:44 danielle danielle     64513          2                 0 1586360       4096      8     0          0 2024-10-06 14:10:44 2024-10-06 14:10:44 2024-10-06 14:10:44
10 nonsense/consectetur/001_001_consectetur file              307 rw-rw-r--   2024-10-06 14:10:44 danielle danielle     64513          1                 0 1586371       4096      8     0          0 2024-10-06 14:10:44 2024-10-06 14:10:44 2024-10-06 14:10:44
# ℹ 17 more rows
…
Note that this trick also works when the paths are of different lengths. For example, suppose I were to use dir_ls() to return the complete list of all files and folders contained within the “nonsense” folder, some of the paths will be length 2 rather than length 3, because the folder paths are also included in the output. Because unnest_wider() is able to handle ragged list columns, you get this as the output:

dir_ls("nonsense", recurse = TRUE) |> 
  path_split() |> 
  tibble::tibble(level = _) |> 
  tidyr::unnest_wider(col = "level", names_sep = "_")

# A tibble: 27 × 3
   level_1  level_2     level_3            
   <chr>    <chr>       <chr>              
 1 nonsense adipiscing  <NA>               
 2 nonsense adipiscing  001_008_adipiscing 
 3 nonsense adipiscing  001_009_adipiscing 
 4 nonsense adipiscing  001_012_adipiscing 
 5 nonsense adipiscing  001_017_adipiscing 
 6 nonsense amet        <NA>               
 7 nonsense amet        001_013_amet       
 8 nonsense amet        001_019_amet       
 9 nonsense consectetur <NA>               
10 nonsense consectetur 001_001_consectetur
# ℹ 17 more rows
…
