Hello cruel world
…
female
feminine

Human

You can specify your own print options to change this behaviour, or you can just call print() explicitly:

starwars |> 
  select(name:homeworld, species) |> 
  filter(species == "Human") |> 
  print()

#> # A tibble: 35 × 11
#>    name     height  mass hair_color skin_color eye_color birth_year sex   gender
#>    <chr>     <int> <dbl> <chr>      <chr>      <chr>          <dbl> <chr> <chr> 
#>  1 Luke Sk…    172    77 blond      fair       blue            19   male  mascu…
#>  2 Darth V…    202   136 none       white      yellow          41.9 male  mascu…
#>  3 Leia Or…    150    49 brown      light      brown           19   fema… femin…
#>  4 Owen La…    178   120 brown, gr… light      blue            52   male  mascu…
#>  5 Beru Wh…    165    75 brown      light      blue            47   fema… femin…
#>  6 Biggs D…    183    84 black      light      brown           24   male  mascu…
#>  7 Obi-Wan…    182    77 auburn, w… fair       blue-gray       57   male  mascu…
#>  8 Anakin …    188    84 blond      fair       blue            41.9 male  mascu…
#>  9 Wilhuff…    180    NA auburn, g… fair       blue            64   male  mascu…
#> 10 Han Solo    180    80 brown      fair       brown           29   male  mascu…
#> # ℹ 25 more rows
#> # ℹ 2 more variables: homeworld <chr>, species <chr>
…
