Art from code VI: Tiles and tessellations – Notes from a data witch
…
I’m not going to explain the inner workings of this function here (because they’re already discussed elsewhere), but in case you need a refresher or haven’t read the relevant page, here’s a look at the kinds of data this function produces, and a scatterplot showing the very non-random spatial patterns it generates:

set.seed(1)
dat <- unboxy(iterations = 1000, layers = 5) 

dat
ggplot(dat, aes(x, y)) + 
  geom_point(colour = "white", show.legend = FALSE) +
  coord_equal(xlim = c(-2.5, 2.5), ylim = c(-2.5, 2.5)) + 
  theme_void()

# A tibble: 1,001 × 3
        x       y     val
    <dbl>   <dbl>   <dbl>
 1  0.579  0.236   0.666 
 2 -1.95   0.935  -0.0757
 3 -0.884  1.09    0.672 
 4 -0.929  2.04    0.401 
 5  0.861  1.44    2.01  
 6  0.404  1.29    1.46  
 7  0.826  0.834  -0.909 
 8  0.999 -2.00    1.94  
 9  0.850  0.0301  1.61  
10 -1.80   1.38   -0.381 
# ℹ 991 more rows
…
