Scatterplot matrices with pairwise pivoting – Notes from a data witch
…
The dirty truth about plotting data though, is that a distressingly large proportion of the work that goes into making a data visualisation happens before you even get to the fun plotting part. So often all the hard work is done at the data wrangling stage: getting the data into the form that it needs to be in order to create the pretty pictures all the boys love me for.1

I’ve written about this before. When I talked about how to visualise a billion rows of data in R, I spent waaaaaaay more time talking about the data wrangling than about the data visualisation itself. That’s where all the hard work is done.

And so it is with considerable displeasure that I come to the vexing topic of drawing scatterplot matrices in ggplot2. As a mathematical psychologist this was a task I had to perform regularly and it annoyed me. As a data scientist, it was also a task I had to perform regularly, and it annoyed me. But now I am a pharmacometrician,2 and… yep, I still have to perform this task regularly, and it still annoys me.

Something about it feels wrong. It feels wrong because the data set that the analyst is using for other purposes is almost always mismatched to the format that the data needs to be in to make the plot effortless. Here’s what I mean, let’s say I’m working with our bestest friend, the Palmer penguins data. It looks like this:

penguins <- datasets::penguins |>
    tibble::as_tibble()

penguins

# A tibble: 344 × 8
   species island    bill_len bill_dep flipper_len body_mass sex     year
   <fct>   <fct>        <dbl>    <dbl>       <int>     <int> <fct>  <int>
 1 Adelie  Torgersen     39.1     18.7         181      3750 male    2007
 2 Adelie  Torgersen     39.5     17.4         186      3800 female  2007
 3 Adelie  Torgersen     40.3     18           195      3250 female  2007
 4 Adelie  Torgersen     NA       NA            NA        NA <NA>    2007
 5 Adelie  Torgersen     36.7     19.3         193      3450 female  2007
 6 Adelie  Torgersen     39.3     20.6         190      3650 male    2007
 7 Adelie  Torgersen     38.9     17.8         181      3625 female  2007
 8 Adelie  Torgersen     39.2     19.6         195      4675 male    2007
 9 Adelie  Torgersen     34.1     18.1         193      3475 <NA>    2007
10 Adelie  Torgersen     42       20.2         190      4250 <NA>    2007
# ℹ 334 more rows
…
If we did in fact have access to wonderful magical fabulous function like this, we could effortly pivot the penguins data into a new pairwise format like this:

penguin_paired_measurements <- penguins |>
    pivot_pairwise(
        pivot_cols = bill_len:body_mass,
        other_cols = species,
        row_id = "penguin",
        names_to = "var",
        values_to = "val"
    )

penguin_paired_measurements

# A tibble: 5,504 × 6
   penguin x_var       y_var       x_val  y_val species
     <int> <chr>       <chr>       <dbl>  <dbl> <fct>  
 1       1 bill_len    bill_len     39.1   39.1 Adelie 
 2       1 bill_len    bill_dep     39.1   18.7 Adelie 
 3       1 bill_len    flipper_len  39.1  181   Adelie 
 4       1 bill_len    body_mass    39.1 3750   Adelie 
 5       1 bill_dep    bill_len     18.7   39.1 Adelie 
 6       1 bill_dep    bill_dep     18.7   18.7 Adelie 
 7       1 bill_dep    flipper_len  18.7  181   Adelie 
 8       1 bill_dep    body_mass    18.7 3750   Adelie 
 9       1 flipper_len bill_len    181     39.1 Adelie 
10       1 flipper_len bill_dep    181     18.7 Adelie 
# ℹ 5,494 more rows
…
