Art from code II. Spatial tricks with ambient – Notes from a data witch
…
In this post I’ll introduce the ambient package, developed by Thomas Lin Pedersen, which supplies R bindings to a C++ library called FastNoise.

Our first ambient artwork

The first step in creating art using the ambient package is to define the “canvas”, a spatial grid of x and y co-ordinates in which values will be stored. I find it helpful to imagine my canvas as the unit square: the smallest value is 0 and the largest value is 1. If I want an 800x800 grid, I use the seq() function to define a length-800 sequence of evenly-spaced numbers starting at 0 and ending at 1:

x_coords <- seq(from = 0, to = 1, length.out = 800)
y_coords <- seq(from = 0, to = 1, length.out = 800)

The canvas that I’ll paint on will be a data frame consisting of all possible combinations of x_coords and y_coords. In base R we can create an object like this using the expand.grid() function, and there’s a tidy equivalent called expand_grid() in the tidyr package. However, when working with the ambient package I prefer to use the long_grid() function that it supplies:

canvas <- long_grid(x = x_coords, y = y_coords) 
canvas

# A tibble: 640,000 × 2
       x       y
   <dbl>   <dbl>
 1     0 0      
 2     0 0.00125
 3     0 0.00250
 4     0 0.00375
 5     0 0.00501
 6     0 0.00626
 7     0 0.00751
 8     0 0.00876
 9     0 0.0100 
10     0 0.0113 
# ℹ 639,990 more rows
…
[1] -0.001000010 -0.001000010 -0.001000009 -0.001000009 -0.001000007
[1] -0.375  0.000  0.000 -0.250  0.000

Both versions show variability, but the scale is quite different! As an aside, notice that gen_perlin() also allows you to specify the seed used to generate the pattern, similar to the way I did earlier when writing sample_canva() to generate random palettes.

Now that we have a sense for what the gen_perlin() function does let’s use it to add a new column to our canvas. I have dplyr loaded so I’ll use mutate() to do this:

canvas <- canvas |> 
  mutate(paint = gen_perlin(x, y, frequency = 10, seed = 1234))

canvas

# A tibble: 640,000 × 3
       x       y  paint
   <dbl>   <dbl>  <dbl>
 1     0 0       0     
 2     0 0.00125 0.0125
 3     0 0.00250 0.0249
 4     0 0.00375 0.0370
 5     0 0.00501 0.0489
 6     0 0.00626 0.0604
 7     0 0.00751 0.0713
 8     0 0.00876 0.0817
 9     0 0.0100  0.0915
10     0 0.0113  0.101 
# ℹ 639,990 more rows
…
As it turns out I actually didn’t need to bother with computing this manually, because ambient supplies a curl_noise() function that does the exact same computations for us. I pass it the x and y coordinates from my smol_grid, specify that the generator function is gen_simplex(), and pass the parameters of the noise function (e.g., its seed and frequency) as additional arguments:

curl <- curl_noise(
  generator = gen_simplex,
  seed = 1,
  frequency = .1,
  x = smol_grid$x, 
  y = smol_grid$y
)

as_tibble(curl)

# A tibble: 400 × 2
         x        y
     <dbl>    <dbl>
 1  0.312   0.0597 
 2  0.124   0.0560 
 3 -0.0121  0.00537
 4 -0.0647 -0.0316 
 5 -0.0808 -0.0412 
 6 -0.121  -0.0349 
 7 -0.216  -0.0351 
 8 -0.214  -0.0817 
 9 -0.0387 -0.196  
10  0.138  -0.311  
# ℹ 390 more rows
…
Next, let’s define an initial state. At “time” point 1 we have a set of co-ordinates laid out on a grid:

coords <- seq(0, 1, length.out = 50)
time_1 <- long_grid(x = coords, y = coords) |> 
  mutate(id = row_number(), time = 1)
time_1

# A tibble: 2,500 × 4
       x      y    id  time
   <dbl>  <dbl> <int> <dbl>
 1     0 0          1     1
 2     0 0.0204     2     1
 3     0 0.0408     3     1
 4     0 0.0612     4     1
 5     0 0.0816     5     1
 6     0 0.102      6     1
 7     0 0.122      7     1
 8     0 0.143      8     1
 9     0 0.163      9     1
10     0 0.184     10     1
# ℹ 2,490 more rows
…
time_3 <- time_2 |> 
  update_curl(
    generator = gen_simplex,
    frequency = 10, 
    seed = 1234
  )

time_3

# A tibble: 2,500 × 4
          x      y    id  time
      <dbl>  <dbl> <int> <dbl>
 1 -0.0264  0.0309     1     3
 2  0.0226  0.0502     2     3
 3  0.0417  0.0712     3     3
 4  0.00234 0.0843     4     3
 5 -0.0372  0.0573     5     3
 6 -0.0253  0.0786     6     3
 7 -0.0154  0.117      7     3
 8 -0.00378 0.136      8     3
 9  0.00913 0.159      9     3
10 -0.0199  0.201     10     3
# ℹ 2,490 more rows
…
