Art from code V: Iterated function systems – Notes from a data witch
…
This function is a little fussier than it really needs to be. For example, if you compare my code to the base R version on Wikipedia you’ll see I spend extra effort tidying the results at the end: rather than returning a matrix of points, I’ve coerced it to a tibble that includes the coordinates as columns x and y, but in addition contains a column transform specifying which of the transformation functions was used to generate each point, and the iteration number as a unique identifier for each row. In any case, here’s the output:

fern_dat <- fern_chaos(seed = 1)
fern_dat

# A tibble: 10,001 × 4
        x     y transform iteration
    <dbl> <dbl>     <dbl>     <dbl>
 1  0     0             0         0
 2  0     1.6           2         1
 3  0.064 2.96          2         2
 4  0.173 4.11          2         3
 5 -1.03  2.54          3         4
 6 -0.778 3.80          2         5
 7 -1.14  2.26          3         6
 8  0.804 0.684         4         7
 9  0.711 2.15          2         8
10  0.690 3.40          2         9
# ℹ 9,991 more rows
…
