Generating quarto syntax within R – Notes from a data witch
…
Huh. Yes that is rather nice. But does it have to be restricted to plots? It doesn’t seem like it should be – if anything, it seems like it should be even easier for a function like quarto_tabset() to wrap a list of data frames and print each of those within a tab. Wouldn’t it be nice if we could that to the…

quarto_tabset(content = dat, names = bbs, level = 3)

Dan
Dani
Danni
Danny
Daniel
Danielle
Daniela

# A tibble: 206 × 5 
    year sex   name      n     prop 
           
 1  1880 M     Dan     140 0.00118  
 2  1881 M     Dan     148 0.00137  
 3  1882 M     Dan     150 0.00123  
 4  1883 M     Dan     120 0.00107  
 5  1884 M     Dan     151 0.00123  
 6  1885 M     Dan     129 0.00111  
 7  1886 M     Dan     154 0.00129  
 8  1887 M     Dan     140 0.00128  
 9  1888 M     Dan     154 0.00119  
10  1889 M     Dan     116 0.000975 
# ℹ 196 more rows 

# A tibble: 136 × 5 
    year sex   name      n       prop 
             
 1  1942 F     Dani      5 0.0000036  
 2  1945 F     Dani      6 0.00000446 
 3  1946 F     Dani      9 0.00000558 
 4  1947 F     Dani      5 0.00000275 
 5  1947 M     Dani      5 0.00000269 
 6  1948 F     Dani      8 0.00000459 
 7  1949 F     Dani     13 0.00000741 
 8  1949 M     Dani      6 0.00000333 
 9  1950 F     Dani     15 0.00000853 
10  1951 F     Dani      8 0.00000433 
# ℹ 126 more rows 

# A tibble: 78 × 5 
    year sex   name      n       prop 
             
 1  1948 F     Danni     5 0.00000287 
 2  1949 F     Danni     5 0.00000285 
 3  1951 F     Danni     5 0.00000271 
 4  1953 M     Danni     5 0.0000025  
 5  1955 F     Danni    49 0.0000244  
 6  1956 F     Danni    43 0.0000209  
 7  1956 M     Danni    11 0.00000513 
 8  1957 F     Danni    21 0.0000100  
 9  1958 F     Danni    18 0.00000872 
10  1959 F     Danni    16 0.0000077  
# ℹ 68 more rows 

# A tibble: 207 × 5 
    year sex   name      n      prop 
            
 1  1900 M     Danny     7 0.0000432 
 2  1901 M     Danny     8 0.0000692 
 3  1902 M     Danny     9 0.0000678 
 4  1903 M     Danny     5 0.0000387 
 5  1904 M     Danny     7 0.0000505 
 6  1905 M     Danny     5 0.0000349 
 7  1907 M     Danny     7 0.0000441 
 8  1908 M     Danny     8 0.0000481 
 9  1909 M     Danny    10 0.0000565 
10  1910 M     Danny    10 0.0000480 
# ℹ 197 more rows 

# A tibble: 246 × 5 
    year sex   name       n    prop 
           
 1  1880 M     Daniel   643 0.00543 
 2  1881 M     Daniel   527 0.00487 
 3  1882 M     Daniel   594 0.00487 
 4  1883 M     Daniel   615 0.00547 
 5  1884 M     Daniel   573 0.00467 
 6  1885 M     Daniel   535 0.00461 
 7  1886 M     Daniel   555 0.00466 
 8  1887 M     Daniel   557 0.00510 
 9  1888 M     Daniel   566 0.00436 
10  1889 M     Daniel   515 0.00433 
# ℹ 236 more rows 

# A tibble: 129 × 5 
    year sex   name         n       prop 
                
 1  1937 F     Danielle     9 0.00000817 
 2  1938 F     Danielle    88 0.0000771  
 3  1939 F     Danielle    72 0.0000635  
 4  1940 F     Danielle    38 0.0000322  
 5  1941 F     Danielle    65 0.0000522  
 6  1942 F     Danielle    57 0.000041   
 7  1943 F     Danielle    67 0.0000467  
 8  1944 F     Danielle    67 0.0000490  
 9  1945 F     Danielle    93 0.0000691  
10  1946 F     Danielle   136 0.0000843  
# ℹ 119 more rows 

# A tibble: 88 × 5 
    year sex   name        n       prop 
               
 1  1947 F     Daniela     8 0.0000044  
 2  1952 F     Daniela     5 0.00000263 
 3  1953 F     Daniela     5 0.00000259 
 4  1954 F     Daniela     7 0.00000352 
 5  1955 F     Daniela     7 0.00000349 
 6  1956 F     Daniela     6 0.00000291 
 7  1957 F     Daniela    10 0.00000477 
 8  1958 F     Daniela    16 0.00000775 
 9  1959 F     Daniela    14 0.00000674 
10  1960 F     Daniela    25 0.0000120  
# ℹ 78 more rows 
…
