Making tables in R with table1 – Notes from a data witch
…
Getting started

The table1 package is one of those “niche” packages that is designed to solve exactly one problem, and solve that problem well: it is designed to produce tables of descriptive statistics of the sort that typically appear as “Table 1” in an academic paper (hence the name). It’s not a general purpose tool for table construction like gt or flextable, and compared to those packages it has a number of limitations. However, because the scope of the package is narrower, it’s able to solve the specific problem that it is designed for in an extremely efficient manner. It’s used a lot in my workplace and while I was a little skeptical at first I’ve come to love it.

So let’s get this party started shall we? First, I’ll need to load a few packages in order to make this post even remotely legible. Besides the table1 package itself, I’ll load the palmerpenguins package so that I have a data set I can play with, and dplyr for any data wrangling I need to do later on:

library(palmerpenguins)
library(table1)
library(dplyr)

The palmerpenguins data set that I’ll be using in this post is one I’ve used many times before, and it’s nicely documented on the package website. Suffice it to say, the data set contains a collection of measurements from three penguin species, and the data set looks like this:

penguins

# A tibble: 344 × 8
   species island    bill_length_mm bill_depth_mm flipper_length_mm body_mass_g sex     year
   <fct>   <fct>              <dbl>         <dbl>             <int>       <int> <fct>  <int>
 1 Adelie  Torgersen           39.1          18.7               181        3750 male    2007
 2 Adelie  Torgersen           39.5          17.4               186        3800 female  2007
 3 Adelie  Torgersen           40.3          18                 195        3250 female  2007
 4 Adelie  Torgersen           NA            NA                  NA          NA <NA>    2007
 5 Adelie  Torgersen           36.7          19.3               193        3450 female  2007
 6 Adelie  Torgersen           39.3          20.6               190        3650 male    2007
 7 Adelie  Torgersen           38.9          17.8               181        3625 female  2007
 8 Adelie  Torgersen           39.2          19.6               195        4675 male    2007
 9 Adelie  Torgersen           34.1          18.1               193        3475 <NA>    2007
10 Adelie  Torgersen           42            20.2               190        4250 <NA>    2007
# ℹ 334 more rows
…
Now let’s move along to the important step. I’m going to create a new variable called penguins_strata that is a list of data frames.

penguins_strata <- c(
    split(penguins, ~species), 
    split(penguins, ~sex),
    list("All" = penguins)
  )

penguins_strata

$Adelie
# A tibble: 152 × 8
   species island    bill_length_mm bill_depth_mm flipper_length_mm body_mass_g sex   
   <fct>   <fct>              <dbl>         <dbl>             <int>       <int> <chr> 
 1 Adelie  Torgersen           39.1          18.7               181        3750 Male  
 2 Adelie  Torgersen           39.5          17.4               186        3800 Female
 3 Adelie  Torgersen           40.3          18                 195        3250 Female
 4 Adelie  Torgersen           NA            NA                  NA          NA <NA>  
 5 Adelie  Torgersen           36.7          19.3               193        3450 Female
 6 Adelie  Torgersen           39.3          20.6               190        3650 Male  
 7 Adelie  Torgersen           38.9          17.8               181        3625 Female
 8 Adelie  Torgersen           39.2          19.6               195        4675 Male  
 9 Adelie  Torgersen           34.1          18.1               193        3475 <NA>  
10 Adelie  Torgersen           42            20.2               190        4250 <NA>  
# ℹ 142 more rows
# ℹ 1 more variable: year <fct>

$Chinstrap
# A tibble: 68 × 8
   species   island bill_length_mm bill_depth_mm flipper_length_mm body_mass_g sex   
   <fct>     <fct>           <dbl>         <dbl>             <int>       <int> <chr> 
 1 Chinstrap Dream            46.5          17.9               192        3500 Female
 2 Chinstrap Dream            50            19.5               196        3900 Male  
 3 Chinstrap Dream            51.3          19.2               193        3650 Male  
 4 Chinstrap Dream            45.4          18.7               188        3525 Female
 5 Chinstrap Dream            52.7          19.8               197        3725 Male  
 6 Chinstrap Dream            45.2          17.8               198        3950 Female
 7 Chinstrap Dream            46.1          18.2               178        3250 Female
 8 Chinstrap Dream            51.3          18.2               197        3750 Male  
 9 Chinstrap Dream            46            18.9               195        4150 Female
10 Chinstrap Dream            51.3          19.9               198        3700 Male  
# ℹ 58 more rows
# ℹ 1 more variable: year <fct>

$Gentoo
# A tibble: 124 × 8
   species island bill_length_mm bill_depth_mm flipper_length_mm body_mass_g sex   
   <fct>   <fct>           <dbl>         <dbl>             <int>       <int> <chr> 
 1 Gentoo  Biscoe           46.1          13.2               211        4500 Female
 2 Gentoo  Biscoe           50            16.3               230        5700 Male  
 3 Gentoo  Biscoe           48.7          14.1               210        4450 Female
 4 Gentoo  Biscoe           50            15.2               218        5700 Male  
 5 Gentoo  Biscoe           47.6          14.5               215        5400 Male  
 6 Gentoo  Biscoe           46.5          13.5               210        4550 Female
 7 Gentoo  Biscoe           45.4          14.6               211        4800 Female
 8 Gentoo  Biscoe           46.7          15.3               219        5200 Male  
 9 Gentoo  Biscoe           43.3          13.4               209        4400 Female
10 Gentoo  Biscoe           46.8          15.4               215        5150 Male  
# ℹ 114 more rows
# ℹ 1 more variable: year <fct>

$Female
# A tibble: 165 × 8
   species island    bill_length_mm bill_depth_mm flipper_length_mm body_mass_g sex   
   <fct>   <fct>              <dbl>         <dbl>             <int>       <int> <chr> 
 1 Adelie  Torgersen           39.5          17.4               186        3800 Female
 2 Adelie  Torgersen           40.3          18                 195        3250 Female
 3 Adelie  Torgersen           36.7          19.3               193        3450 Female
 4 Adelie  Torgersen           38.9          17.8               181        3625 Female
 5 Adelie  Torgersen           41.1          17.6               182        3200 Female
 6 Adelie  Torgersen           36.6          17.8               185        3700 Female
 7 Adelie  Torgersen           38.7          19                 195        3450 Female
 8 Adelie  Torgersen           34.4          18.4               184        3325 Female
 9 Adelie  Biscoe              37.8          18.3               174        3400 Female
10 Adelie  Biscoe              35.9          19.2               189        3800 Female
# ℹ 155 more rows
# ℹ 1 more variable: year <fct>

$Male
# A tibble: 168 × 8
   species island    bill_length_mm bill_depth_mm flipper_length_mm body_mass_g sex  
   <fct>   <fct>              <dbl>         <dbl>             <int>       <int> <chr>
 1 Adelie  Torgersen           39.1          18.7               181        3750 Male 
 2 Adelie  Torgersen           39.3          20.6               190        3650 Male 
 3 Adelie  Torgersen           39.2          19.6               195        4675 Male 
 4 Adelie  Torgersen           38.6          21.2               191        3800 Male 
 5 Adelie  Torgersen           34.6          21.1               198        4400 Male 
 6 Adelie  Torgersen           42.5          20.7               197        4500 Male 
 7 Adelie  Torgersen           46            21.5               194        4200 Male 
 8 Adelie  Biscoe              37.7          18.7               180        3600 Male 
 9 Adelie  Biscoe              38.2          18.1               185        3950 Male 
10 Adelie  Biscoe              38.8          17.2               180        3800 Male 
# ℹ 158 more rows
# ℹ 1 more variable: year <fct>

$All
# A tibble: 344 × 8
   species island    bill_length_mm bill_depth_mm flipper_length_mm body_mass_g sex   
   <fct>   <fct>              <dbl>         <dbl>             <int>       <int> <chr> 
 1 Adelie  Torgersen           39.1          18.7               181        3750 Male  
 2 Adelie  Torgersen           39.5          17.4               186        3800 Female
 3 Adelie  Torgersen           40.3          18                 195        3250 Female
 4 Adelie  Torgersen           NA            NA                  NA          NA <NA>  
 5 Adelie  Torgersen           36.7          19.3               193        3450 Female
 6 Adelie  Torgersen           39.3          20.6               190        3650 Male  
 7 Adelie  Torgersen           38.9          17.8               181        3625 Female
 8 Adelie  Torgersen           39.2          19.6               195        4675 Male  
 9 Adelie  Torgersen           34.1          18.1               193        3475 <NA>  
10 Adelie  Torgersen           42            20.2               190        4250 <NA>  
# ℹ 334 more rows
# ℹ 1 more variable: year <fct>
…
