The schools of magic plot
…
Data for the heatmap

To produce data for the heatmap, we select the relevant columns: i.e., those corresponding to the character classes, the school variable that denotes the school of magic for the spell, and the name variable because I like having an id column in my data. We then use pivot_longer() to arrange this data set in long form:

spells_long <- spells |>
  select(name, school, bard:wizard) |>
  pivot_longer(
    cols = bard:wizard,
    names_to = "class",
    values_to = "castable"
  ) 

print(spells_long)

#> # A tibble: 2,512 × 4
#>    name        school     class    castable
#>    <chr>       <chr>      <chr>    <lgl>   
#>  1 Acid Splash evocation  bard     FALSE   
#>  2 Acid Splash evocation  cleric   FALSE   
#>  3 Acid Splash evocation  druid    FALSE   
#>  4 Acid Splash evocation  paladin  FALSE   
#>  5 Acid Splash evocation  ranger   FALSE   
#>  6 Acid Splash evocation  sorcerer TRUE    
#>  7 Acid Splash evocation  warlock  FALSE   
#>  8 Acid Splash evocation  wizard   TRUE    
#>  9 Aid         abjuration bard     TRUE    
#> 10 Aid         abjuration cleric   TRUE    
#> # ℹ 2,502 more rows
Now we have a tidy data set with one row per “observation”, in the sense that it specifies whether a spell of a specific name (which belongs to a specific school), is in fact castable by members of a particular character class. We can summarise this by aggregating over the specific spells, and count the number of castable spells for each combination of magic school and character class:

dat <- spells_long |>
  summarise(
    count = sum(castable),
    .by = c("school", "class")
  ) |>
  mutate(
    school = str_to_title(school),
    class  = str_to_title(class)
  )

print(dat)

#> # A tibble: 64 × 3
#>    school     class    count
#>    <chr>      <chr>    <int>
#>  1 Evocation  Bard         7
#>  2 Evocation  Cleric      12
#>  3 Evocation  Druid       17
#>  4 Evocation  Paladin      3
#>  5 Evocation  Ranger       3
#>  6 Evocation  Sorcerer    30
#>  7 Evocation  Warlock      4
#>  8 Evocation  Wizard      30
#>  9 Abjuration Bard        16
#> 10 Abjuration Cleric      33
#> # ℹ 54 more rows
…
