gamlss – Notes from a data witch
…
# retain only the to-be-used columns, and only those cases for which
# age, weight, height, and sex are all present; filter to age < 80
# because NHANES uses "80" to mean "80 and above" so the actual age
# is not known
ok <- function(x) !is.na(x)
nhanes <- nhanes |>
  select(id, sex_num, sex_fct, weight_kg, height_cm, age_mn, age_yr, cohort) |>
  filter(ok(sex_num), ok(weight_kg), ok(height_cm), ok(age_mn)) |>
  filter(age_yr < 80)

nhanes

# A tibble: 113,319 × 8
      id sex_num sex_fct weight_kg height_cm age_mn age_yr cohort   
   <dbl>   <dbl> <fct>       <dbl>     <dbl>  <dbl>  <dbl> <chr>    
 1     1       1 female       12.5      91.6     29   2.42 1999-2000
 2     2       0 male         75.4     174      926  77.2  1999-2000
 3     3       1 female       32.9     137.     125  10.4  1999-2000
 4     4       0 male         13.3      86.1     22   1.83 1999-2000
 5     5       0 male         92.5     178.     597  49.8  1999-2000
 6     6       1 female       59.2     162      230  19.2  1999-2000
 7     7       1 female       78       163.     712  59.3  1999-2000
 8     8       0 male         40.7     162      159  13.2  1999-2000
 9     9       1 female       45.5     157.     133  11.1  1999-2000
10    10       0 male        112.      190.     518  43.2  1999-2000
# ℹ 113,309 more rows
…
predict_quantiles <- predict_pars |>
  mutate(
    q05 = qBCPE(.05, mu = mu, sigma = sigma, nu = nu, tau = tau),
    q25 = qBCPE(.25, mu = mu, sigma = sigma, nu = nu, tau = tau),
    q50 = qBCPE(.50, mu = mu, sigma = sigma, nu = nu, tau = tau),
    q75 = qBCPE(.75, mu = mu, sigma = sigma, nu = nu, tau = tau),
    q95 = qBCPE(.95, mu = mu, sigma = sigma, nu = nu, tau = tau)
  )

predict_quantiles

# A tibble: 960 × 11
   age_mn sex_fct    mu  sigma    nu   tau   q05   q25   q50   q75   q95
    <int> <fct>   <dbl>  <dbl> <dbl> <dbl> <dbl> <dbl> <dbl> <dbl> <dbl>
 1      1 male     64.3 0.0676  1.68  1.89  56.8  61.4  64.3  67.1  71.2
 2      2 male     65.2 0.0671  1.68  1.89  57.7  62.2  65.2  68.1  72.2
 3      3 male     66.1 0.0666  1.68  1.89  58.6  63.1  66.1  69.0  73.1
 4      4 male     67.0 0.0662  1.68  1.89  59.4  64.0  67.0  69.9  74.1
 5      5 male     67.9 0.0657  1.68  1.89  60.3  64.9  67.9  70.8  75.0
 6      6 male     68.8 0.0652  1.68  1.89  61.1  65.8  68.8  71.7  76.0
 7      7 male     69.7 0.0648  1.68  1.89  62.0  66.7  69.7  72.7  76.9
 8      8 male     70.6 0.0643  1.68  1.89  62.8  67.5  70.6  73.6  77.8
 9      9 male     71.5 0.0639  1.68  1.89  63.7  68.4  71.5  74.5  78.8
10     10 male     72.4 0.0635  1.68  1.89  64.5  69.3  72.4  75.4  79.7
# ℹ 950 more rows
…
hw_density <- wt_density |> 
  left_join(ht_density, by = c("sex_fct", "age_mn", "height_cm")) |>
  mutate(
    density = h_density * w_density,
    sex_fct = factor(sex_fct, labels = c("male", "female"))
  ) |>
  select(-h_density, -w_density)

hw_density

# A tibble: 4,484,700 × 5
   sex_fct age_mn height_cm weight_kg  density
   <chr>    <dbl>     <dbl>     <dbl>    <dbl>
 1 female       6        50         1 1.47e-48
 2 female       6        50         2 5.21e- 6
 3 female       6        50         3 1.64e- 5
 4 female       6        50         4 4.07e- 8
 5 female       6        50         5 3.09e-10
 6 female       6        50         6 7.73e-12
 7 female       6        50         7 4.59e-13
 8 female       6        50         8 5.01e-14
 9 female       6        50         9 8.47e-15
10 female       6        50        10 1.97e-15
# ℹ 4,484,690 more rows
…
