Art from code I: Generative art with R – Notes from a data witch
…
Art is theft

Okay that’s quite enough preamble. Let’s stop talking and start making some art! Following the oft-repeated dictum that “art is theft” I want to begin with an act of wholesale thievery. I am going to co-opt tools that were created for serious data science purposes and repurpose them for art. If you’re in this room with me then you already know these tools by name: ggplot2 is an R package designed for data visualisation; dplyr is designed for data manipulation; tibble is designed for data representation. None of these packages were created for artists. They’re practical tools designed for statisticians, data scientists, analysts, and other knowledge workers.

Fuck it. Let’s steal them. Sorry Hadley.

library(ggplot2)
library(tibble)

Let’s start with a data visualisation exercise that most R users have encountered at one time or another: creating a scatterplot. The ggplot2 package supplies the tediously-overused mpg data set that… I don’t know, it has something to do with cars, I think? I don’t drive and I am trying very hard to pretend I never learned anything about the internal combustion engine. The point here is that we have a data set. From the perspective of the generative artist our main concern is that it’s a table that contains some numbers and text organised in a table:

mpg

# A tibble: 234 × 11
   manufacturer model  displ  year   cyl trans drv     cty   hwy fl    class
   <chr>        <chr>  <dbl> <int> <int> <chr> <chr> <int> <int> <chr> <chr>
 1 audi         a4       1.8  1999     4 auto… f        18    29 p     comp…
 2 audi         a4       1.8  1999     4 manu… f        21    29 p     comp…
 3 audi         a4       2    2008     4 manu… f        20    31 p     comp…
 4 audi         a4       2    2008     4 auto… f        21    30 p     comp…
 5 audi         a4       2.8  1999     6 auto… f        16    26 p     comp…
 6 audi         a4       2.8  1999     6 manu… f        18    26 p     comp…
 7 audi         a4       3.1  2008     6 auto… f        18    27 p     comp…
 8 audi         a4 qu…   1.8  1999     4 manu… 4        18    26 p     comp…
 9 audi         a4 qu…   1.8  1999     4 auto… 4        16    25 p     comp…
10 audi         a4 qu…   2    2008     4 manu… 4        20    28 p     comp…
# ℹ 224 more rows
…
I could just have easily created my own raw materials. As a statistical programming language R comes equipped with a very sophisticated collection of tools for generating pseudorandom numbers with various distributions. I can tap into this whenever I like but in a lot of cases I don’t need anything more fancy than the runif() function. Uniformly distributed random numbers are perfectly adequate for many purposes. Let’s make some:

set.seed(1)
n <- 50
dat <- tibble(
  x0 = runif(n),
  y0 = runif(n),
  x1 = x0 + runif(n, min = -.2, max = .2),
  y1 = y0 + runif(n, min = -.2, max = .2),
  shade = runif(n), 
  width = runif(n)
)
dat

# A tibble: 50 × 6
       x0     y0    x1      y1 shade width
    <dbl>  <dbl> <dbl>   <dbl> <dbl> <dbl>
 1 0.266  0.478  0.327  0.523  0.268 0.762
 2 0.372  0.861  0.313  0.884  0.219 0.933
 3 0.573  0.438  0.481  0.370  0.517 0.471
 4 0.908  0.245  1.11   0.226  0.269 0.604
 5 0.202  0.0707 0.255  0.0709 0.181 0.485
 6 0.898  0.0995 0.784 -0.0282 0.519 0.109
 7 0.945  0.316  0.796  0.328  0.563 0.248
 8 0.661  0.519  0.652  0.349  0.129 0.499
 9 0.629  0.662  0.799  0.573  0.256 0.373
10 0.0618 0.407  0.101  0.292  0.718 0.935
# ℹ 40 more rows
…
