The Box-Cox power exponential distribution – Notes from a data witch
…
Data are annoying

I’ll start with a data set I use very often when doing this kind of work: the National Health and Nutrition Examination Survey,1 2 usually abbreviated to NHANES. I’ll probably talk more about NHANES when I finally write the GAMLSS post I’ve been promising, but for now let’s just load some data that I preprocessed earlier:3

nhanes <- read_csv("nhanes-v01.csv", show_col_types = FALSE) 
nhanes

# A tibble: 8,403 × 6
   sex_num sex_fct weight_kg height_cm age_mn age_yr
     <dbl> <chr>       <dbl>     <dbl>  <dbl>  <dbl>
 1       0 male         86.9      180.    516  43   
 2       0 male        102.       174.    792  66   
 3       1 female       69.4      153.    528  44   
 4       1 female       34.3      120.     71   5.92
 5       0 male         90.6      173.    408  34   
 6       1 female      104.       156.    816  68   
 7       1 female      124.       168.    324  27   
 8       0 male         79.8      169.    708  59   
 9       1 female      123.       163.    372  31   
10       1 female      116.       173.    396  33   
# ℹ 8,393 more rows
…
