Bayesian Emax regression using brms – Notes from a data witch
…
“we used up all the perfect”

Data

Now that we have dispensed with the tiresome notation part, we’ll need some data to work with. As I mentioned in an earlier blog post, simulating semi-plausible data sets for exposure-response analysis isn’t trivial when you don’t have a properly specified pharmacokinetic (PK) model under the hood, but if we make a few simplifying assumptions we can produce something that seems reasonable. Rather than waste all our time repeating material from an earlier post, I’ll simply note that the framework I put together in that post is (more or less) exactly the one I used to generate the d_sim_emax data set that comes with the BayesERtools package. So, let’s just load that data here yes?

data("d_sim_emax", package = "BayesERtools")
d_sim_emax

# A tibble: 300 × 9
    dose exposure response_1 response_2 cnt_a cnt_b cnt_c bin_d bin_e
   <dbl>    <dbl>      <dbl>      <dbl> <dbl> <dbl> <dbl> <dbl> <dbl>
 1   100    4151.       12.8          1  5.71  2.33  7.83     0     1
 2   100    8067.       14.6          1  4.92  4.66  6.74     1     1
 3   100    4878.       12.8          1  4.88  4.21  4.68     1     1
 4   100    9713.       16.6          1  8.42  6.56  1.29     0     1
 5   100   11491.       14.4          0  4.37  3.96  3.55     0     1
 6   100    2452.       12.6          1  8.69  7.60  3.64     0     0
 7   100    5652.       14.8          1  6.61  3.95  5.13     0     0
 8   100    9939.       15.2          1  5.35  7.77  8.29     0     1
 9   100    5817.       14.6          0  5.61  2.24  9.60     0     1
10   100    5176.       13.7          1  6.06  1.79  8.74     0     1
# ℹ 290 more rows
…
Draws were sampled using sample(hmc). For each parameter, Bulk_ESS
and Tail_ESS are effective sample size measures, and Rhat is the potential
scale reduction factor on split chains (at convergence, Rhat = 1).

So, yeah, there’s a lot of output here and the details do matter in real life. But for the purposes of this post I’ll focus on the table of regression coefficients. The estimated value for E0 is 5.02, with a 95% credible interval of [2.28, 7.11]. In other words, there’s some uncertainty about the baseline response, but not too much. For the Emax parameter itself, the point estimate is 11.92 and the 95% credible interval is [9.79, 14.54]. For EC50 we estimate that 50% of the maximum effect occurs at exposure 2398, and again we have a 95% interval for that, namely [1662, 3202].

To extract model predictions and make a nice plot, we can use some of the tools from Matthew Kay’s lovely tidybayes package to extract the predictions…

continuous_base_epred <- continuous_base_fit |> 
  epred_draws(newdata = tibble(exposure = seq(0, 50000, 1000))) |> 
  median_qi()

continuous_base_epred

# A tibble: 51 × 8
   exposure  .row .epred .lower .upper .width .point .interval
      <dbl> <int>  <dbl>  <dbl>  <dbl>  <dbl> <chr>  <chr>    
 1        0     1   5.13   2.28   7.11   0.95 median qi       
 2     1000     2   8.62   7.59   9.56   0.95 median qi       
 3     2000     3  10.5    9.99  11.1    0.95 median qi       
 4     3000     4  11.7   11.4   12.1    0.95 median qi       
 5     4000     5  12.5   12.3   12.8    0.95 median qi       
 6     5000     6  13.1   12.9   13.3    0.95 median qi       
 7     6000     7  13.6   13.4   13.8    0.95 median qi       
 8     7000     8  13.9   13.8   14.1    0.95 median qi       
 9     8000     9  14.2   14.1   14.4    0.95 median qi       
10     9000    10  14.5   14.3   14.6    0.95 median qi       
# ℹ 41 more rows
…
