GAMLSS, NHANES, and my own personal hell – Notes from a data witch
…
 nhanes

# A tibble: 119,926 × 9
      id sex_s weight_kg_e height_cm_e length_cm_e age_yr_s age_mn_s
   <dbl> <dbl>       <dbl>       <dbl>       <dbl>    <dbl>    <dbl>
 1     1     2        12.5        91.6        93.2        2       29
 2     2     1        75.4       174          NA         77      926
 3     3     2        32.9       137.         NA         10      125
 4     4     1        13.3        NA          87.1        1       22
 5     5     1        92.5       178.         NA         49      597
 6     6     2        59.2       162          NA         19      230
 7     7     2        78         163.         NA         59      712
 8     8     1        40.7       162          NA         13      159
 9     9     2        45.5       157.         NA         11      133
10    10     1       112.        190.         NA         43      518
# ℹ 119,916 more rows
# ℹ 2 more variables: age_mn_e <dbl>, cohort <chr>
…
The NHANES data set doesn’t include information about transgender status or intersex status (at least not in the demographics and body measurements tables), and so for the purposes of NHANES-based analyses sex is a treated as binary variable, and doesn’t require any extra steps beyond tidying and attaching nice labels. A similar story holds for weight: we have one measurement, the weight at time of exam, and that’s what we’ll use.

At this point the unwary might fall into the trap of thinking that we’re done, but – alas – we aren’t quite there yet. There’s one more detail to consider regarding the age data. In the NHANES data set the age values stop at 80, but that value doesn’t literally mean “80 years” it means “80 years or older”. Because of that, you need to take some care in how you work with data for older participants. As it happens, I’ve never had to deal with this in the wild because my projects have used NHANES data in the pediatric setting. Given that, I’ll keep it simple here and just drop all cases with age recorded as “80+” years. Not a problem if your application is pediatric, but you wouldn’t want to do this in situations where you’re interested in older populations.

In any case, having noted this I can finally complete the preprocessing and arrive at my nhanes data frame:

nhanes <- nhanes |>
  select(id, sex_num, sex_fct, weight_kg, height_cm, age_mn, age_yr, cohort) |>
  filter(ok(sex_num), ok(weight_kg), ok(height_cm), ok(age_mn)) |>
  filter(age_yr < 80)

nhanes

# A tibble: 113,319 × 8
      id sex_num sex_fct weight_kg height_cm age_mn age_yr cohort   
   <dbl>   <dbl> <fct>       <dbl>     <dbl>  <dbl>  <dbl> <chr>    
 1     1       1 female       12.5      91.6     29   2.42 1999-2000
 2     2       0 male         75.4     174      926  77.2  1999-2000
 3     3       1 female       32.9     137.     125  10.4  1999-2000
 4     4       0 male         13.3      86.0     22   1.83 1999-2000
 5     5       0 male         92.5     178.     597  49.8  1999-2000
 6     6       1 female       59.2     162      230  19.2  1999-2000
 7     7       1 female       78       163.     712  59.3  1999-2000
 8     8       0 male         40.7     162      159  13.2  1999-2000
 9     9       1 female       45.5     157.     133  11.1  1999-2000
10    10       0 male        112.      190.     518  43.2  1999-2000
# ℹ 113,309 more rows
…
predict_quantiles_ht <- predict_pars_ht |>
  mutate(
    q05 = qBCPE(.05, mu = mu, sigma = sigma, nu = nu, tau = tau),
    q25 = qBCPE(.25, mu = mu, sigma = sigma, nu = nu, tau = tau),
    q50 = qBCPE(.50, mu = mu, sigma = sigma, nu = nu, tau = tau),
    q75 = qBCPE(.75, mu = mu, sigma = sigma, nu = nu, tau = tau),
    q95 = qBCPE(.95, mu = mu, sigma = sigma, nu = nu, tau = tau)
  )

predict_quantiles_ht

# A tibble: 960 × 11
   age_mn sex_fct    mu  sigma    nu   tau   q05   q25   q50   q75   q95
    <int> <fct>   <dbl>  <dbl> <dbl> <dbl> <dbl> <dbl> <dbl> <dbl> <dbl>
 1      1 male     56.8 0.0470 0.761  1.80  52.5  55.1  56.8  58.6  61.3
 2      2 male     59.1 0.0465 0.761  1.80  54.6  57.3  59.1  60.9  63.7
 3      3 male     61.3 0.0459 0.761  1.80  56.7  59.5  61.3  63.1  66.0
 4      4 male     63.3 0.0454 0.761  1.80  58.6  61.5  63.3  65.2  68.1
 5      5 male     65.3 0.0449 0.761  1.80  60.5  63.4  65.3  67.2  70.1
 6      6 male     67.1 0.0445 0.761  1.80  62.2  65.1  67.1  69.0  72.0
 7      7 male     68.8 0.0441 0.761  1.80  63.8  66.8  68.8  70.7  73.8
 8      8 male     70.3 0.0437 0.761  1.80  65.3  68.4  70.3  72.3  75.4
 9      9 male     71.8 0.0433 0.761  1.80  66.8  69.8  71.8  73.9  77.0
10     10 male     73.2 0.0429 0.761  1.80  68.1  71.2  73.2  75.3  78.5
# ℹ 950 more rows
…
predict_cases_wt

# A tibble: 1,920 × 4
   age_mn sex_fct height_fct height_cm
    <int> <fct>   <fct>          <dbl>
 1      1 male    very_tall       63.3
 2      1 male    very_short      50.5
 3      2 male    very_tall       65.8
 4      2 male    very_short      52.7
 5      3 male    very_tall       68.1
 6      3 male    very_short      54.7
 7      4 male    very_tall       70.3
 8      4 male    very_short      56.6
 9      5 male    very_tall       72.3
10      5 male    very_short      58.4
# ℹ 1,910 more rows
…
predict_quantiles_wt <- predict_pars_wt |>
  mutate(
    q05 = qBCPE(.05, mu = mu, sigma = sigma, nu = nu, tau = tau),
    q25 = qBCPE(.25, mu = mu, sigma = sigma, nu = nu, tau = tau),
    q50 = qBCPE(.50, mu = mu, sigma = sigma, nu = nu, tau = tau),
    q75 = qBCPE(.75, mu = mu, sigma = sigma, nu = nu, tau = tau),
    q95 = qBCPE(.95, mu = mu, sigma = sigma, nu = nu, tau = tau)
  )

predict_quantiles_wt

# A tibble: 1,920 × 13
   age_mn sex_fct height_fct height_cm    mu  sigma    nu   tau   q05   q25
    <int> <fct>   <fct>          <dbl> <dbl>  <dbl> <dbl> <dbl> <dbl> <dbl>
 1      1 male    very_tall       63.3  7.29 0.101  -1.22  1.79  6.26  6.84
 2      1 male    very_short      50.5  3.83 0.101  -1.22  1.79  3.29  3.59
 3      2 male    very_tall       65.8  7.99 0.100  -1.22  1.79  6.87  7.51
 4      2 male    very_short      52.7  4.39 0.100  -1.22  1.79  3.78  4.13
 5      3 male    very_tall       68.1  8.64 0.0987 -1.22  1.79  7.45  8.13
 6      3 male    very_short      54.7  4.92 0.0987 -1.22  1.79  4.24  4.63
 7      4 male    very_tall       70.3  9.25 0.0975 -1.22  1.79  7.99  8.70
 8      4 male    very_short      56.6  5.41 0.0975 -1.22  1.79  4.67  5.09
 9      5 male    very_tall       72.3  9.82 0.0963 -1.22  1.79  8.49  9.24
10      5 male    very_short      58.4  5.86 0.0963 -1.22  1.79  5.07  5.52
# ℹ 1,910 more rows
# ℹ 3 more variables: q50 <dbl>, q75 <dbl>, q95 <dbl>
…
nhanes_very_tall <- semi_join(
  x = nhanes, 
  y = permitted |> filter(height_fct == "very_tall"),
  by = match_rules
)

nhanes_partial <- bind_rows(
  very_short = nhanes_very_short,
  very_tall = nhanes_very_tall,
  .id = "height_fct"
) |> mutate(height_fct = factor(height_fct))

nhanes_partial

# A tibble: 1,513 × 9
   height_fct    id sex_num sex_fct weight_kg height_cm age_mn age_yr cohort
   <fct>      <dbl>   <dbl> <fct>       <dbl>     <dbl>  <dbl>  <dbl> <chr> 
 1 very_short   106       0 male         71.8      157.    479   39.9 1999-…
 2 very_short   181       0 male         50.8      153.    177   14.8 1999-…
 3 very_short   186       0 male         57.7      158.    220   18.3 1999-…
 4 very_short   590       1 female       46.5      146.    186   15.5 1999-…
 5 very_short   599       0 male         42.2      143.    162   13.5 1999-…
 6 very_short   708       1 female       73.8      146.    313   26.1 1999-…
 7 very_short   849       0 male         35.7      150.    172   14.3 1999-…
 8 very_short   941       1 female       57.1      146.    262   21.8 1999-…
 9 very_short  1012       0 male         38        141.    158   13.2 1999-…
10 very_short  1075       0 male         54.6      156.    237   19.8 1999-…
# ℹ 1,503 more rows
…
pop <- bind_rows(
  gamlss = sample_hw(nhanes_fit$age_mn, nhanes_fit$sex_fct, mod = mod),
  nhanes = nhanes_fit |> select(age_mn, sex_fct, height_cm, weight_kg),
  .id = "source"
) |> mutate(age_band_fct = age_band(age_mn))

pop

# A tibble: 148,894 × 6
   source age_mn sex_fct height_cm weight_kg age_band_fct
   <chr>   <dbl> <fct>       <dbl>     <dbl> <fct>       
 1 gamlss      0 male         55.3      5.87 <1 year     
 2 gamlss      0 male         57.3      5.36 <1 year     
 3 gamlss      0 male         56.3      4.86 <1 year     
 4 gamlss      0 male         56.5      5.54 <1 year     
 5 gamlss      0 male         54.1      5.03 <1 year     
 6 gamlss      0 male         53.8      5.23 <1 year     
 7 gamlss      0 male         56.6      4.89 <1 year     
 8 gamlss      0 male         55.0      5.20 <1 year     
 9 gamlss      0 male         55.4      4.98 <1 year     
10 gamlss      0 male         53.4      4.38 <1 year     
# ℹ 148,884 more rows
…
bsa_pop_2

# A tibble: 480,000 × 8
      id age_mn sex_fct height_cm weight_kg bsa_m2_dubois bsa_m2_haycock
   <int>  <int> <fct>       <dbl>     <dbl>         <dbl>          <dbl>
 1     1      1 male         58.1      5.70         0.286          0.310
 2     2      1 female       55.0      4.37         0.246          0.263
 3     3      2 male         62.2      6.58         0.319          0.343
 4     4      2 female       56.5      4.52         0.254          0.270
 5     5      3 male         59.6      6.41         0.307          0.333
 6     6      3 female       63.6      7.08         0.335          0.361
 7     7      4 male         64.4      6.87         0.334          0.356
 8     8      4 female       63.8      6.34         0.321          0.340
 9     9      5 male         65.9      7.42         0.351          0.375
10    10      5 female       64.5      8.19         0.360          0.392
# ℹ 479,990 more rows
# ℹ 1 more variable: threshold <chr>
…
