Art from code IV: Shading tricks – Notes from a data witch
…
  # normalise paint to [0, 1] range and return
  art$paint <- normalise(art$paint)
  return(art)
}

Here’s what happens when we generate output from the system and then use geom_raster() to plot it:

circle_art <- additive_circles(seed = 99)
circle_art

# A tibble: 1,000,000 × 3
       x       y paint
   <dbl>   <dbl> <dbl>
 1     0 0           0
 2     0 0.00100     0
 3     0 0.00200     0
 4     0 0.00300     0
 5     0 0.00400     0
 6     0 0.00501     0
 7     0 0.00601     0
 8     0 0.00701     0
 9     0 0.00801     0
10     0 0.00901     0
# ℹ 999,990 more rows
…
