Use of flextable – Notes from a data witch
…
ship_count <- ships |> 
  mutate(Civilisation = case_when(
    str_detect(Civilisation, "^Culture ") ~ "Culture",
    str_detect(Civilisation, "^Non-aligned ") ~ "Non-aligned",
    TRUE ~ Civilisation
  )) |> 
  group_by(Novel, Civilisation) |>
  count(name = "Ships") |> 
  ungroup() |> 
  arrange(Novel, desc(Ships))

ship_count

# A tibble: 26 × 3
   Novel            Civilisation          Ships
   <chr>            <chr>                 <int>
 1 Consider Phlebas Culture                  11
 2 Consider Phlebas Non-aligned               2
 3 Consider Phlebas Idiran                    1
 4 Excession        Culture                  47
 5 Excession        Affront                   7
 6 Excession        later Sleeper Service     1
 7 Look to Windward Culture                  40
 8 Look to Windward Chelgrian                 3
 9 Matter           Culture                  15
10 Matter           Morthanveld               4
# ℹ 16 more rows
…
Use of Weapons
Culture
7

Much nicer.

As an aside, while merging cells is one way to solve the “repeated entries” issue, there are other solutions. Another approach I’ve occasionally used is to use the as_grouped_data() function in flextable to modify the data structure before it is passed to flextable(). If we take that approach with our ship_count data set, this is what happens to the data frame:

ship_count |> 
  as_grouped_data(groups = "Novel") |> 
  as_tibble()

# A tibble: 35 × 3
   Novel            Civilisation          Ships
   <chr>            <chr>                 <int>
 1 Consider Phlebas <NA>                     NA
 2 <NA>             Culture                  11
 3 <NA>             Non-aligned               2
 4 <NA>             Idiran                    1
 5 Excession        <NA>                     NA
 6 <NA>             Culture                  47
 7 <NA>             Affront                   7
 8 <NA>             later Sleeper Service     1
 9 Look to Windward <NA>                     NA
10 <NA>             Culture                  40
# ℹ 25 more rows
…
