The schools of magic – Notes from a data witch
…
The spells data

The spells data that I’m using here comes from the TidyTuesday D&D Spells data set. The data set was compiled by Jon Harmon, and originates in the recently released Dungeons & Dragons Free Rules. If you’ve played D&D before, this should be quite familiar:

spells <- read_csv("./spells.csv", show_col_types = FALSE)
print(spells)

# A tibble: 314 × 27
   name      level school bard  cleric druid paladin ranger sorcerer warlock
   <chr>     <dbl> <chr>  <lgl> <lgl>  <lgl> <lgl>   <lgl>  <lgl>    <lgl>  
 1 Acid Spl…     0 evoca… FALSE FALSE  FALSE FALSE   FALSE  TRUE     FALSE  
 2 Aid           2 abjur… TRUE  TRUE   TRUE  TRUE    TRUE   FALSE    FALSE  
 3 Alarm         1 abjur… FALSE FALSE  FALSE FALSE   TRUE   FALSE    FALSE  
 4 Alter Se…     2 trans… FALSE FALSE  FALSE FALSE   FALSE  TRUE     FALSE  
 5 Animal F…     1 encha… TRUE  FALSE  TRUE  FALSE   TRUE   FALSE    FALSE  
 6 Animal M…     2 encha… TRUE  FALSE  TRUE  FALSE   TRUE   FALSE    FALSE  
 7 Animal S…     8 trans… FALSE FALSE  TRUE  FALSE   FALSE  FALSE    FALSE  
 8 Animate …     3 necro… FALSE TRUE   FALSE FALSE   FALSE  FALSE    FALSE  
 9 Animate …     5 trans… TRUE  FALSE  FALSE FALSE   FALSE  TRUE     FALSE  
10 Antilife…     5 abjur… FALSE FALSE  TRUE  FALSE   FALSE  FALSE    FALSE  
# ℹ 304 more rows
# ℹ 17 more variables: wizard <lgl>, casting_time <chr>, action <lgl>,
#   bonus_action <lgl>, reaction <lgl>, ritual <lgl>,
#   casting_time_long <chr>, trigger <chr>, range <chr>, range_type <chr>,
#   verbal_component <lgl>, somatic_component <lgl>,
#   material_component <lgl>, material_component_details <chr>,
#   duration <chr>, concentration <lgl>, description <chr>
…
[[3]]
[1] "1d8"  "12d6"

Doing this within a data frame produces a dice_txt list column:

spells |>
  select(name, level, description) |>
  mutate(
    dice_txt = description |> 
      str_extract_all("\\b\\d+d\\d+\\b") |> 
      map(unique)
  )

# A tibble: 314 × 4
   name              level description                              dice_txt
   <chr>             <dbl> <chr>                                    <list>  
 1 Acid Splash           0 "You create an acidic bubble at a point… <chr>   
 2 Aid                   2 "Choose up to three creatures within ra… <chr>   
 3 Alarm                 1 "You set an alarm against intrusion. Ch… <chr>   
 4 Alter Self            2 "You alter your physical form. Choose o… <chr>   
 5 Animal Friendship     1 "Target a Beast that you can see within… <chr>   
 6 Animal Messenger      2 "A Tiny Beast of your choice that you c… <chr>   
 7 Animal Shapes         8 "Choose any number of willing creatures… <chr>   
 8 Animate Dead          3 "Choose a pile of bones or a corpse of … <chr>   
 9 Animate Objects       5 "Objects animate at your command. Choos… <chr>   
10 Antilife Shell        5 "An aura extends from you in a 10-foot … <chr>   
# ℹ 304 more rows
…
spells |>
  select(name, level, description) |>
  mutate(
    dice_txt = description |> 
      str_extract_all("\\b\\d+d\\d+\\b") |> 
      map(unique)
  ) |> 
  unnest_longer(
    col = "dice_txt",
    values_to = "dice_txt",
    indices_to = "position"
  )

# A tibble: 236 × 5
   name            level description                       dice_txt position
   <chr>           <dbl> <chr>                             <chr>       <int>
 1 Acid Splash         0 "You create an acidic bubble at … 1d6             1
 2 Acid Splash         0 "You create an acidic bubble at … 2d6             2
 3 Acid Splash         0 "You create an acidic bubble at … 3d6             3
 4 Acid Splash         0 "You create an acidic bubble at … 4d6             4
 5 Alter Self          2 "You alter your physical form. C… 1d6             1
 6 Animate Objects     5 "Objects animate at your command… 1d4             1
 7 Animate Objects     5 "Objects animate at your command… 1d6             2
 8 Animate Objects     5 "Objects animate at your command… 1d12            3
 9 Animate Objects     5 "Objects animate at your command… 2d6             4
10 Animate Objects     5 "Objects animate at your command… 2d12            5
# ℹ 226 more rows
…
print(dice_dat)

# A tibble: 236 × 8
   name       level description dice_txt position dice_num dice_die dice_val
   <chr>      <dbl> <chr>       <fct>       <int>    <dbl>    <dbl>    <dbl>
 1 Acid Spla…     0 "You creat… 1d6             1        1        6      3.5
 2 Acid Spla…     0 "You creat… 2d6             2        2        6      7  
 3 Acid Spla…     0 "You creat… 3d6             3        3        6     10.5
 4 Acid Spla…     0 "You creat… 4d6             4        4        6     14  
 5 Alter Self     2 "You alter… 1d6             1        1        6      3.5
 6 Animate O…     5 "Objects a… 1d4             1        1        4      2.5
 7 Animate O…     5 "Objects a… 1d6             2        1        6      3.5
 8 Animate O…     5 "Objects a… 1d12            3        1       12      6.5
 9 Animate O…     5 "Objects a… 2d6             4        2        6      7  
10 Animate O…     5 "Objects a… 2d12            5        2       12     13  
# ℹ 226 more rows
…
Data for the heatmap

To produce data for the heatmap, we select the relevant columns: i.e., those corresponding to the character classes, the school variable that denotes the school of magic for the spell, and the name variable because I like having an id column in my data. We then use pivot_longer() to arrange this data set in long form:

spells_long <- spells |>
  select(name, school, bard:wizard) |>
  pivot_longer(
    cols = bard:wizard,
    names_to = "class",
    values_to = "castable"
  ) 

print(spells_long)

# A tibble: 2,512 × 4
   name        school     class    castable
   <chr>       <chr>      <chr>    <lgl>   
 1 Acid Splash evocation  bard     FALSE   
 2 Acid Splash evocation  cleric   FALSE   
 3 Acid Splash evocation  druid    FALSE   
 4 Acid Splash evocation  paladin  FALSE   
 5 Acid Splash evocation  ranger   FALSE   
 6 Acid Splash evocation  sorcerer TRUE    
 7 Acid Splash evocation  warlock  FALSE   
 8 Acid Splash evocation  wizard   TRUE    
 9 Aid         abjuration bard     TRUE    
10 Aid         abjuration cleric   TRUE    
# ℹ 2,502 more rows
Now we have a tidy data set with one row per “observation”, in the sense that it specifies whether a spell of a specific name (which belongs to a specific school), is in fact castable by members of a particular character class. We can summarise this by aggregating over the specific spells, and count the number of castable spells for each combination of magic school and character class:

dat <- spells_long |>
  summarise(
    count = sum(castable),
    .by = c("school", "class")
  ) |>
  mutate(
    school = str_to_title(school),
    class  = str_to_title(class)
  )

print(dat)

# A tibble: 64 × 3
   school     class    count
   <chr>      <chr>    <int>
 1 Evocation  Bard         7
 2 Evocation  Cleric      12
 3 Evocation  Druid       17
 4 Evocation  Paladin      3
 5 Evocation  Ranger       3
 6 Evocation  Sorcerer    30
 7 Evocation  Warlock      4
 8 Evocation  Wizard      30
 9 Abjuration Bard        16
10 Abjuration Cleric      33
# ℹ 54 more rows
…
